001: field = 0, hull = 0, damage=1 (post: field=0,hull=0) ex:false (OK)
002: field = 0, hull = 1, damage=1 (post: field=0,hull=0) ex:true (OK)
003: field = 1, hull = 1, damage=2 (post: field=0,hull=0) ex:true (OK)
004: field = 1, hull = 1, damage=1 (post: field=0,hull=1) ex:false (OK)
